{
  "variants": {
    "age=0": {
      "model": "cobblemon:block/berries/planted"
    },
    "age=1": {
      "model": "cobblemon:block/berries/sprout"
    },
    "age=2": {
      "model": "cobblemon:block/berries/cornn_young"
    },
    "age=3": {
      "model": "cobblemon:block/berries/cornn_mature"
    },
    "age=4": {
      "model": "cobblemon:block/berries/cornn_mature"
    },
    "age=5": {
      "model": "cobblemon:block/berries/cornn_mature"
    }
  }
}