{
  "implemented": true,
  "name": "Cetoddle",
  "nationalPokedexNumber": 974,
  "primaryType": "ice",
  "abilities": [
    "thickfat",
    "snowcloak",
    "h:sheerforce"
  ],
  "baseStats": {
    "hp": 108,
    "attack": 68,
    "defence": 45,
    "special_attack": 30,
    "special_defence": 40,
    "speed": 43
  },
  "catchRate": 150,
  "maleRatio": 0.5,
  "baseExperienceYield": 67,
  "baseFriendship": 50,
  "evYield": {
    "hp": 1,
    "attack": 0,
    "defence": 0,
    "special_attack": 0,
    "special_defence": 0,
    "speed": 0
  },
  "experienceGroup": "medium_slow",
  "eggCycles": 25,
  "eggGroups": [
    "field"
  ],
  "moves": [
    "1:powdersnow",
    "1:tackle",
    "6:growl",
    "9:echoedvoice",
    "12:iceshard",
    "15:rest",
    "19:takedown",
    "25:flail",
    "27:avalanche",
    "31:bounce",
    "36:bodyslam",
    "40:amnesia",
    "44:icespinner",
    "49:doubleedge",
    "53:blizzard",
    "egg:bellydrum",
    "egg:entrainment",
    "egg:iciclecrash",
    "egg:superpower",
    "egg:yawn",
    "tm:amnesia",
    "tm:avalanche",
    "tm:blizzard",
    "tm:bodypress",
    "tm:bodyslam",
    "tm:bulldoze",
    "tm:charm",
    "tm:chillingwater",
    "tm:earthquake",
    "tm:endure",
    "tm:facade",
    "tm:heavyslam",
    "tm:helpinghand",
    "tm:hyperbeam",
    "tm:hypervoice",
    "tm:icebeam",
    "tm:icefang",
    "tm:icespinner",
    "tm:icywind",
    "tm:liquidation",
    "tm:playrough",
    "tm:protect",
    "tm:raindance",
    "tm:rest",
    "tm:sleeptalk",
    "tm:snowscape",
    "tm:stompingtantrum",
    "tm:substitute",
    "tm:takedown",
    "tm:terablast",
    "tm:waterpulse"
  ],
  "labels": [
    "gen9"
  ],
  "aspects": [],
  "height": 12,
  "weight": 450,
  "evolutions": [
    {
      "id": "cetoddle_cetitan",
      "variant": "item_interact",
      "result": "cetitan",
      "consumeHeldItem": false,
      "learnableMoves": [],
      "requirements": [],
      "requiredContext": "cobblemon:ice_stone"
    }
  ],
  "baseScale": 1.0,
  "hitbox": {
    "width": 1.0,
    "height": 1.0,
    "fixed": false
  },
  "cannotDynamax": false,
  "pokedex": [
    "cobblemon.species.cetoddle.desc"
  ]
}