{
  "implemented": true,
  "name": "Shinx",
  "nationalPokedexNumber": 403,
  "primaryType": "electric",
  "abilities": [
    "rivalry",
    "intimidate",
    "h:guts"
  ],
  "baseStats": {
    "hp": 45,
    "attack": 65,
    "defence": 34,
    "special_attack": 40,
    "special_defence": 34,
    "speed": 45
  },
  "catchRate": 235,
  "maleRatio": 0.5,
  "shoulderMountable": false,
  "baseExperienceYield": 53,
  "experienceGroup": "medium_slow",
  "eggCycles": 20,
  "eggGroups": [
    "field"
  ],
  "moves": [
    "1:leer",
    "1:tackle",
    "4:thundershock",
    "5:leer",
    "8:charge",
    "9:charge",
    "11:babydolleyes",
    "12:bite",
    "13:bite",
    "13:spark",
    "16:spark",
    "17:bite",
    "20:roar",
    "21:roar",
    "24:voltswitch",
    "25:swagger",
    "28:scaryface",
    "29:crunch",
    "29:thunderfang",
    "32:thunderwave",
    "33:crunch",
    "36:crunch",
    "37:scaryface",
    "40:discharge",
    "41:discharge",
    "44:swagger",
    "45:wildcharge",
    "48:wildcharge",
    "egg:babydolleyes",
    "egg:doublekick",
    "egg:eerieimpulse",
    "egg:faketears",
    "egg:firefang",
    "egg:helpinghand",
    "egg:howl",
    "egg:icefang",
    "egg:nightslash",
    "egg:quickattack",
    "egg:shockwave",
    "egg:signalbeam",
    "egg:swift",
    "egg:takedown",
    "egg:thunderfang",
    "tm:attract",
    "tm:captivate",
    "tm:chargebeam",
    "tm:confide",
    "tm:confuseray",
    "tm:crunch",
    "tm:doubleteam",
    "tm:eerieimpulse",
    "tm:electricterrain",
    "tm:electroball",
    "tm:endure",
    "tm:facade",
    "tm:faketears",
    "tm:firefang",
    "tm:flash",
    "tm:frustration",
    "tm:helpinghand",
    "tm:hiddenpower",
    "tm:icefang",
    "tm:irontail",
    "tm:lightscreen",
    "tm:naturalgift",
    "tm:playrough",
    "tm:protect",
    "tm:psychicfangs",
    "tm:raindance",
    "tm:rest",
    "tm:return",
    "tm:roar",
    "tm:round",
    "tm:scaryface",
    "tm:secretpower",
    "tm:shockwave",
    "tm:sleeptalk",
    "tm:snarl",
    "tm:snore",
    "tm:strength",
    "tm:substitute",
    "tm:sunnyday",
    "tm:swagger",
    "tm:swift",
    "tm:takedown",
    "tm:terablast",
    "tm:thief",
    "tm:thunder",
    "tm:thunderbolt",
    "tm:thunderfang",
    "tm:thunderwave",
    "tm:toxic",
    "tm:trailblaze",
    "tm:voltswitch",
    "tm:wildcharge",
    "tutor:charge",
    "tutor:furycutter",
    "tutor:headbutt",
    "tutor:helpinghand",
    "tutor:irontail",
    "tutor:magnetrise",
    "tutor:mudslap",
    "tutor:nightslash",
    "tutor:risingvoltage",
    "tutor:shockwave",
    "tutor:signalbeam",
    "tutor:sleeptalk",
    "tutor:snore",
    "tutor:swift"
  ],
  "labels": [
    "gen4"
  ],
  "pokedex": [
    "cobblemon.species.shinx.desc"
  ],
  "evolutions": [
    {
      "id": "shinx_luxio",
      "variant": "level_up",
      "result": "luxio",
      "consumeHeldItem": false,
      "learnableMoves": [],
      "requirements": [
        {
          "variant": "level",
          "minLevel": 15
        }
      ]
    }
  ],
  "baseScale": 0.7,
  "hitbox": {
    "width": 0.7,
    "height": 1,
    "fixed": false
  },
  "baseFriendship": 50,
  "evYield": {
    "hp": 0,
    "attack": 1,
    "defence": 0,
    "special_attack": 0,
    "special_defence": 0,
    "speed": 0
  },
  "height": 5,
  "weight": 95,
  "aspects": [],
  "cannotDynamax": false
}