{
	"format_version": "1.8.0",
	"animations": {
		"animation.pelipper.ground_idle": {
			"loop": true,
			"bones": {
				"body": {
					"rotation": [0, 0, 0]
				},
				"head": {
					"rotation": [-5, 0, 0]
				},
				"wing_left": {
					"rotation": [-1.15495, 2.21738, 62.47765]
				},
				"wing_left2": {
					"rotation": [0, 0, -15]
				},
				"wing_right": {
					"rotation": [-1.15495, -2.21738, -62.47765]
				},
				"wing_right2": {
					"rotation": [0, 0, 15]
				},
				"wing_right3": {
					"rotation": [0, 0, 45]
				},
				"wing_left3": {
					"rotation": [0, 0, -45]
				},
				"torso": {
					"rotation": [2.5, 0, 0]
				},
				"foot_left": {
					"rotation": [0, -7.5, 0]
				},
				"foot_right": {
					"rotation": [0, 7.5, 0]
				}
			}
		},
		"animation.pelipper.blink": {
			"animation_length": 0.1667,
			"bones": {
				"eyelid_right": {
					"position": {
						"0.0": [-0.1, 0, -0.1],
						"0.125": [-0.1, 0, -0.1],
						"0.1667": [0, 0, 0]
					}
				},
				"eyelid_left": {
					"position": {
						"0.0": [0.1, 0, -0.1],
						"0.125": [0.1, 0, -0.1],
						"0.1667": [0, 0, 0]
					}
				}
			}
		},
		"animation.pelipper.cry": {
			"animation_length": 1.5,
			"bones": {
				"head": {
					"rotation": {
						"0.0": [0, 0, 0],
						"0.25": [-17.5, 0, 0],
						"1.25": [-17.5, 0, 0],
						"1.5": [0, 0, 0]
					}
				}
			}
		}
	}
}