{
  "baseYield": {
    "min": 1,
    "max": 3
  },
  "preferredBiomeTags": [
    "cobblemon:is_plains"
  ],
  "growthTime": {
    "min": 75,
    "max": 85
  },
  "refreshRate": {
    "min": 17,
    "max": 27
  },
  "favoriteMulches": [
    "loamy"
  ],
  "growthFactors": [
    {
      "variant": "cobblemon:preferred_biome",
      "bonusYield": {
        "min": 1,
        "max": 1
      }
    }
  ],
  "randomizedGrowthPoints": true,
  "spawnConditions": [],
  "growthPoints": [
    {
      "position": {
        "x": 7.0,
        "y": 13.5,
        "z": 7.0
      },
      "rotation": {
        "x": 17.5,
        "y": -45.0,
        "z": -180.0
      }
    },
    {
      "position": {
        "x": 9.25,
        "y": 13.5,
        "z": 9.25
      },
      "rotation": {
        "x": -167.5,
        "y": 45.0,
        "z": 0.0
      }
    },
    {
      "position": {
        "x": 6.75,
        "y": 13.5,
        "z": 9.25
      },
      "rotation": {
        "x": -167.5,
        "y": -45.0,
        "z": 0.0
      }
    },
    {
      "position": {
        "x": 9.25,
        "y": 13.5,
        "z": 6.75
      },
      "rotation": {
        "x": 10.0,
        "y": 45.0,
        "z": -180.0
      }
    }
  ],
  "mutations": {
    "cobblemon:lum_berry": "cobblemon:hopo_berry"
  },
  "sproutShape": [
    {
      "minX": 7,
      "minY": -1,
      "minZ": 7,
      "maxX": 9,
      "maxY": 0,
      "maxZ": 9
    }
  ],
  "matureShape": [
    {
      "minX": 0,
      "minY": 0,
      "minZ": 0,
      "maxX": 16,
      "maxY": 32,
      "maxZ": 16
    }
  ],
  "flavors": {
    "SPICY": 10,
    "DRY": 10,
    "SWEET": 10,
    "BITTER": 10,
    "SOUR": 10
  },
  "weight": 1.0,
  "tintIndexes": [],
  "flowerModel": "cobblemon:leppa_flower.geo",
  "flowerTexture": "cobblemon:textures/berries/leppa.png",
  "fruitModel": "cobblemon:leppa_berry.geo",
  "fruitTexture": "cobblemon:textures/berries/leppa.png"
}