{
  "baseYield": {
    "min": 1,
    "max": 3
  },
  "preferredBiomeTags": [
    "cobblemon:is_arid"
  ],
  "growthTime": {
    "min": 75,
    "max": 85
  },
  "refreshRate": {
    "min": 15,
    "max": 25
  },
  "favoriteMulches": [
    "sandy"
  ],
  "growthFactors": [
    {
      "variant": "cobblemon:preferred_biome",
      "bonusYield": {
        "min": 1,
        "max": 1
      }
    }
  ],
  "randomizedGrowthPoints": true,
  "spawnConditions": [],
  "growthPoints": [
    {
      "position": {
        "x": 7.5,
        "y": 4.5,
        "z": 8.5
      },
      "rotation": {
        "x": -140.0,
        "y": -45.0,
        "z": 0.0
      }
    },
    {
      "position": {
        "x": 8.75,
        "y": 4.5,
        "z": 7.25
      },
      "rotation": {
        "x": 145.0,
        "y": -47.5,
        "z": 0.0
      }
    },
    {
      "position": {
        "x": 7.5,
        "y": 4.25,
        "z": 7.5
      },
      "rotation": {
        "x": 140.0,
        "y": 45.0,
        "z": -2.5
      }
    },
    {
      "position": {
        "x": 8.75,
        "y": 4.25,
        "z": 8.75
      },
      "rotation": {
        "x": -145.0,
        "y": 45.0,
        "z": 0.0
      }
    }
  ],
  "mutations": {
    "cobblemon:tamato_berry": "cobblemon:salac_berry",
    "cobblemon:chople_berry": "cobblemon:lansat_berry"
  },
  "sproutShape": [
    {
      "minX": 7,
      "minY": -1,
      "minZ": 7,
      "maxX": 9,
      "maxY": 0,
      "maxZ": 9
    }
  ],
  "matureShape": [
    {
      "minX": 0,
      "minY": 0,
      "minZ": 0,
      "maxX": 16,
      "maxY": 32,
      "maxZ": 16
    }
  ],
  "flavors": {
    "SPICY": 30,
    "DRY": 10
  },
  "weight": 1.0,
  "tintIndexes": [],
  "flowerModel": "cobblemon:spelon_flower.geo",
  "flowerTexture": "cobblemon:textures/berries/spelon.png",
  "fruitModel": "cobblemon:spelon_berry.geo",
  "fruitTexture": "cobblemon:textures/berries/spelon.png"
}