{
	"format_version": "1.8.0",
	"animations": {
		"animation.bewear.ground_idle": {
			"loop": true,
			"bones": {
				"arm_right": {
					"rotation": [0, 0, -37.5]
				},
				"arm_right2": {
					"rotation": [0, -7.5, 0]
				},
				"arm_right3": {
					"rotation": [0, -7.5, 0]
				},
				"arm_left": {
					"rotation": [0, 0, 37.5]
				},
				"arm_left2": {
					"rotation": [0, 7.5, 0]
				},
				"arm_left3": {
					"rotation": [0, 7.5, 0]
				},
				"tail": {
					"rotation": [-15, 0, 0]
				},
				"tail2": {
					"rotation": [7.5, 0, 0]
				}
			}
		},
		"animation.bewear.blink": {
			"animation_length": 0.16667,
			"bones": {
				"eyelid_right": {
					"position": {
						"0.0": [0, 0, -0.1],
						"0.125": [0, 0, -0.1],
						"0.1667": [0, 0, 0]
					}
				},
				"eyelid_left": {
					"position": {
						"0.0": [0, 0, -0.1],
						"0.125": [0, 0, -0.1],
						"0.1667": [0, 0, 0]
					}
				}
			}
		}
	}
}