{
	"format_version": "1.8.0",
	"animations": {
		"animation.drizzile.ground_idle": {
			"loop": true,
			"bones": {
				"torso": {
					"rotation": ["20+math.sin(q.anim_time*90*2-90)*1", 0, 0]
				},
				"chest": {
					"rotation": ["2.5-math.sin(q.anim_time*90*2-45)*2", 0, 0]
				},
				"arm_left": {
					"rotation": [45, "32.7503+math.sin(q.anim_time*90*2+135)*2", 50]
				},
				"arm_left2": {
					"rotation": [0, "47.5+math.sin(q.anim_time*90*2-90)*2", 0]
				},
				"hand_left": {
					"rotation": [-2.74715, -12.19908, "15.2936-math.sin(q.anim_time*90*2+45)*4"]
				},
				"hand_left2": {
					"rotation": [0, 0, 32.5]
				},
				"thumb_left": {
					"rotation": [20, -20, 0]
				},
				"neck": {
					"rotation": ["5-math.sin(q.anim_time*90*2)*2", 0, 0]
				},
				"head": {
					"rotation": ["-5-math.sin(q.anim_time*90*2-90)*2", 0, 0]
				},
				"leg_left": {
					"rotation": ["-34.8082+math.sin(q.anim_time*90*2)*2", -0.91933, "-33.3328+math.sin(q.anim_time*90*2)*2"]
				},
				"leg_left2": {
					"rotation": [-0.95723, -2.30959, "65.0193-math.sin(q.anim_time*90*2)*3"]
				},
				"foot_left": {
					"rotation": ["-11.1256-math.sin(q.anim_time*90*2)*1", "0.48-math.sin(q.anim_time*90*2)*0.5", "-22.7813+math.sin(q.anim_time*90*2)*3"],
					"position": ["-math.sin(q.anim_time*90*2)*0.05", -0.45, 0]
				},
				"foot_finger_left_1": {
					"rotation": [0, 0, "-32.5-math.sin(q.anim_time*90*2)*1"]
				},
				"foot_finger_left_2": {
					"rotation": [0, 0, "-32.5-math.sin(q.anim_time*90*2)*1"]
				},
				"leg_right": {
					"rotation": ["-34.8082+math.sin(q.anim_time*90*2)*2", -0.91933, "33.3328-math.sin(q.anim_time*90*2)*2"]
				},
				"leg_right2": {
					"rotation": [-0.95723, 2.30959, "-65.0193+math.sin(q.anim_time*90*2)*3"]
				},
				"foot_right": {
					"rotation": ["-11.1256-math.sin(q.anim_time*90*2)*1", "-0.48+math.sin(q.anim_time*90*2)*0.5", "22.7813-math.sin(q.anim_time*90*2)*3"],
					"position": ["math.sin(q.anim_time*90*2)*0.05", -0.45, 0]
				},
				"foot_finger_right_1": {
					"rotation": [0, 0, "32.5+math.sin(q.anim_time*90*2)*1"]
				},
				"foot_finger_right_2": {
					"rotation": [0, 0, "32.5+math.sin(q.anim_time*90*2)*1"]
				},
				"arm_right": {
					"rotation": [45, "-32.7503-math.sin(q.anim_time*90*2+135)*2", -50]
				},
				"arm_right2": {
					"rotation": [-0.00003, "-47.5-math.sin(q.anim_time*90*2-90)*2", 0.00001]
				},
				"hand_right": {
					"rotation": [-2.74715, 12.1991, "-15.2936+math.sin(q.anim_time*90*2+45)*4"]
				},
				"hand_right2": {
					"rotation": [0, 0, -22.5]
				},
				"thumb_right": {
					"rotation": [22.34066, 24.66391, 2.95431]
				},
				"hair_top": {
					"rotation": ["5-math.sin(q.anim_time*90*2-135)*4", 0, 0]
				},
				"hair_top2": {
					"rotation": ["-17.5-math.sin(q.anim_time*90*2-215)*4", 0, 0]
				},
				"hair_front": {
					"rotation": [-2.49547, 10.00945, -0.22013]
				},
				"hair_front2": {
					"rotation": ["45+math.sin(q.anim_time*90*2-135)*2", 0, 0]
				},
				"hair_side": {
					"rotation": [0, 2.5, 0]
				},
				"hair_side2": {
					"rotation": ["70+math.sin(q.anim_time*90*2-135)*4", 0, 0]
				},
				"hair_front3": {
					"rotation": ["55+math.sin(q.anim_time*90*2-215)*4", 0, 0]
				},
				"hair_side3": {
					"rotation": ["25+math.sin(q.anim_time*90*2-215)*4", 0, 0]
				},
				"body": {
					"position": [0, "-2.7+math.sin(q.anim_time*90*2)*0.2", 0]
				},
				"tail": {
					"rotation": [-30, "33.6356-math.sin(q.anim_time*90*2-135)*4", -22.63752]
				},
				"tail2": {
					"rotation": [32.5, "-math.sin(q.anim_time*90*2-180)*8", 0]
				},
				"tail3": {
					"rotation": [30, "4.2154-math.sin(q.anim_time*90*2-215)*8", 2.69136]
				},
				"tail4": {
					"rotation": [12.5, "-math.sin(q.anim_time*90*2-240)*8", 0]
				},
				"bomb": {
					"rotation": [0, 0, 22.5]
				}
			}
		},
		"animation.drizzile.ground_walk": {
			"loop": true,
			"animation_length": 2,
			"bones": {
				"leg_left3": {
					"rotation": [0, 0, "60+math.clamp(math.sin(q.anim_time*90*8+90)*15,0,180)"]
				},
				"feet_left": {
					"rotation": [0, 0, 5]
				},
				"leg_right3": {
					"rotation": [0, 0, "-60-math.clamp(math.sin(q.anim_time*90*8-90)*15,0,180)"]
				},
				"feet_right": {
					"rotation": [0, 0, -5]
				},
				"tear_left": {
					"position": [0, 0, 0.1]
				},
				"tear_left2": {
					"position": [0, 2, 0]
				},
				"tear_left3": {
					"position": [0, 2, 0]
				},
				"tear_left4": {
					"position": [0, 2, 0]
				},
				"tear_left5": {
					"position": [0, 2, 0]
				},
				"tear_right": {
					"position": [0, 0, 0.1]
				},
				"tear_right2": {
					"position": [0, 2, 0]
				},
				"tear_right3": {
					"position": [0, 2, 0]
				},
				"tear_right4": {
					"position": [0, 2, 0]
				},
				"tear_right5": {
					"position": [0, 2, 0]
				},
				"fin": {
					"rotation": [-7.5, "15+math.sin(q.anim_time*90*8-135)*2", "0+math.sin(q.anim_time*90*8-135)*4"]
				},
				"fin2": {
					"rotation": [0, 0, "math.sin(q.anim_time*90*8+90)*8"]
				},
				"body": {
					"rotation": [27.5, 0, 0],
					"position": [0, "0.2-math.sin(q.anim_time*90*16-90)*0.07", 7]
				},
				"torso": {
					"rotation": ["75+math.sin(q.anim_time*90*16)*2", "math.sin(q.anim_time*90*8)*10", 0],
					"position": [0, 1, 0]
				},
				"chest": {
					"rotation": [-15, 0, "math.sin(q.anim_time*90*8)*20"],
					"position": [0, -1, 0]
				},
				"arm_left": {
					"rotation": [-77.07784, "35-math.sin(q.anim_time*90*8)*12", "-3.1704+math.sin(q.anim_time*90*8)*12"]
				},
				"arm_left2": {
					"rotation": [30, "60+math.clamp(math.sin(q.anim_time*90*8-90)*35,0,180)", "-math.clamp(math.sin(q.anim_time*90*8-90)*40,0,180)"]
				},
				"hand_left": {
					"rotation": [0, 0, 0]
				},
				"hand_left2": {
					"rotation": [0, 0, "-27.5+math.clamp(math.sin(q.anim_time*90*8-45)*65,0,180)"]
				},
				"arm_right": {
					"rotation": [-77.0778, "-35-math.sin(q.anim_time*90*8)*12", "-3.1704+math.sin(q.anim_time*90*8)*12"]
				},
				"arm_right2": {
					"rotation": [30, "-60-math.clamp(math.sin(q.anim_time*90*8+90)*35,0,180)", "math.clamp(math.sin(q.anim_time*90*8+90)*40,0,180)"]
				},
				"hand_right": {
					"rotation": [0, 0, 0]
				},
				"hand_right2": {
					"rotation": [0, 0, "27.5-math.clamp(-math.sin(q.anim_time*90*8-45)*65,0,180)"]
				},
				"neck": {
					"rotation": ["-15-math.sin(q.anim_time*90*16)*2", 0, 0]
				},
				"head": {
					"rotation": ["-35.5+math.sin(q.anim_time*90*16-90)*1", "-math.sin(q.anim_time*90*8-90)*5", 0],
					"position": [0, -1, -0.3]
				},
				"pupil_left": {
					"position": [0, -0.3, 0]
				},
				"pupil_right": {
					"position": [0, -0.3, 0]
				},
				"hair_top": {
					"rotation": ["-50+math.sin(q.anim_time*90*16-180)*5", 0, 0]
				},
				"hair_top2": {
					"rotation": ["math.sin(q.anim_time*90*16-270)*7", 0, 0]
				},
				"hair_front2": {
					"rotation": ["60+math.sin(q.anim_time*90*16-180)*5", 0, 0]
				},
				"hair_front3": {
					"rotation": ["math.sin(q.anim_time*90*16-270)*8", 0, 0]
				},
				"hair_side2": {
					"rotation": ["67.5+math.sin(q.anim_time*90*16-230)*5", 0, 0]
				},
				"tail": {
					"rotation": ["-107.5+math.sin(q.anim_time*90*8-90)*2", "math.sin(q.anim_time*90*8-45)*15", "math.sin(q.anim_time*90*8-45)*5"],
					"position": [0, 1, -1.5]
				},
				"tail2": {
					"rotation": [10, "-math.sin(q.anim_time*90*8-45)*10", 0],
					"position": [0, 0, 0.2]
				},
				"tail3": {
					"rotation": [10, "-math.sin(q.anim_time*90*8-90)*15", 0]
				},
				"tail4": {
					"rotation": [10, "-math.sin(q.anim_time*90*8-135)*15", 0]
				},
				"leg_left": {
					"rotation": ["-25.4405-math.sin(q.anim_time*90*8)*4", "0+math.sin(q.anim_time*90*8)*28", "-22.1585-math.clamp(math.sin(q.anim_time*90*8+90)*16,0,180)"]
				},
				"leg_left2": {
					"rotation": [0, 0, "52.5+math.clamp(math.sin(q.anim_time*90*8-270)*35,-5,180)"]
				},
				"foot_left": {
					"rotation": [0, "math.clamp(-math.sin(q.anim_time*90*8)*25,0,180)", 0]
				},
				"foot_finger_left_1": {
					"rotation": [0, 0, "-40+math.clamp(-math.sin(q.anim_time*90*8-20)*65,0,180)"]
				},
				"foot_finger_left_2": {
					"rotation": [0, 0, "-40+math.clamp(-math.sin(q.anim_time*90*8-20)*65,0,180)"]
				},
				"leg_right": {
					"rotation": ["-25.4405+math.sin(q.anim_time*90*8)*4", "0+math.sin(q.anim_time*90*8)*28", "22.1585+math.clamp(math.sin(q.anim_time*90*8-90)*16,0,180)"]
				},
				"leg_right2": {
					"rotation": [0, 0, "-52.5-math.clamp(math.sin(q.anim_time*90*8+270)*35,-5,180)"]
				},
				"foot_right": {
					"rotation": [0, "math.clamp(-math.sin(q.anim_time*90*8)*25,-180,0)", 0]
				},
				"foot_finger_right_1": {
					"rotation": [0, 0, "40-math.clamp(math.sin(q.anim_time*90*8-20)*65,0,180)"]
				},
				"foot_finger_right_2": {
					"rotation": [0, 0, "40-math.clamp(math.sin(q.anim_time*90*8-20)*65,0,180)"]
				}
			}
		},
		"animation.drizzile.battle_idle": {
			"loop": true,
			"bones": {
				"torso": {
					"rotation": [22.5, 0, 0]
				},
				"chest": {
					"rotation": [2.5, 2.5, 0]
				},
				"arm_left": {
					"rotation": [7.56397, 7.43547, 0.98448]
				},
				"arm_left2": {
					"rotation": [24.89867, 62.22995, 27.68035]
				},
				"hand_left": {
					"rotation": [0, 0, -7.5]
				},
				"hand_left2": {
					"rotation": [0, 0, 32.5]
				},
				"thumb_left": {
					"rotation": [35, 0, 0]
				},
				"neck": {
					"rotation": [7.5, 0, 0]
				},
				"head": {
					"rotation": [-10, 0, 0]
				},
				"leg_left": {
					"rotation": [-11.73634, -2.594, -24.03208]
				},
				"leg_left2": {
					"rotation": [0, -2.5, 42.5]
				},
				"foot_left": {
					"rotation": [-10.63317, 3.32682, -8.04425]
				},
				"foot_finger_left_1": {
					"rotation": [0, 0, -30]
				},
				"foot_finger_left_2": {
					"rotation": [0, 0, -32.5]
				},
				"leg_right": {
					"rotation": [-25.22332, 23.5667, 29.13183]
				},
				"leg_right2": {
					"rotation": [0, 0, -52.5]
				},
				"foot_right": {
					"rotation": [-1.36081, -5.24826, -9.47761]
				},
				"foot_finger_right_1": {
					"rotation": [0, 0, 52.5]
				},
				"foot_finger_right_2": {
					"rotation": [0, 0, 57.5]
				},
				"arm_right": {
					"rotation": [0, 15, 0]
				},
				"arm_right2": {
					"rotation": [6.93255, -34.39275, -12.14787]
				},
				"hand_right": {
					"rotation": [0, 0, -10]
				},
				"hand_right2": {
					"rotation": [0, 0, -22.5]
				},
				"thumb_right": {
					"rotation": [20, 0, 0]
				},
				"hair_top": {
					"rotation": [5, 0, 0]
				},
				"hair_top2": {
					"rotation": [-17.5, 0, 0]
				},
				"hair_front": {
					"rotation": [-2.49547, 10.00945, -0.22013]
				},
				"hair_front2": {
					"rotation": [45, 0, 0]
				},
				"hair_side": {
					"rotation": [0, 2.5, 0]
				},
				"hair_side2": {
					"rotation": [70, 0, 0]
				},
				"hair_front3": {
					"rotation": [55, 0, 0]
				},
				"hair_side3": {
					"rotation": [25, 0, 0]
				},
				"body": {
					"position": [0, -1.2, 0]
				},
				"tail": {
					"rotation": [-10.14168, 7.15102, -2.26708]
				},
				"tail2": {
					"rotation": [25, 0, 0]
				},
				"tail3": {
					"rotation": [32.59907, 4.21541, 2.69136]
				},
				"tail4": {
					"rotation": [12.5, 0, 0]
				},
				"bomb": {
					"rotation": [0, 0, 22.5]
				}
			}
		},
		"animation.drizzile.blink": {
			"animation_length": 0.16667,
			"bones": {
				"eyelid_full_left": {
					"position": {
						"0.0": [0.1, 0, -0.1],
						"0.125": [0.1, 0, -0.1],
						"0.1667": [0, 0, 0]
					}
				},
				"eyelid_full_right": {
					"position": {
						"0.0": [-0.1, 0, -0.1],
						"0.125": [-0.1, 0, -0.1],
						"0.1667": [0, 0, 0]
					}
				}
			}
		},
		"animation.drizzile.cry": {
			"animation_length": 1.75,
			"bones": {
				"eyelid_left": {
					"position": {
						"0.0": [0, 0, 0],
						"0.0417": [0, 0, -0.1],
						"0.2083": [0, 0, -0.1],
						"0.25": [0, 0, 0]
					}
				},
				"eyelid_right": {
					"position": {
						"0.0": [0, 0, 0],
						"0.0417": [0, 0, -0.1],
						"0.2083": [0, 0, -0.1],
						"0.25": [0, 0, 0]
					}
				},
				"neck": {
					"rotation": {
						"0.0": [0, 0, 0],
						"0.25": ["0+math.sin(q.anim_time*90*6+45)*4", 0, 0],
						"0.3333": ["-5+math.sin(q.anim_time*90*3+95)*4", 0, 0],
						"1.0": ["-5+math.sin(q.anim_time*90*3)*2", 0, 0],
						"1.5": [0, 0, 0],
						"1.75": [0, 0, 0]
					}
				},
				"head": {
					"rotation": {
						"0.0": [0, 0, 0],
						"0.25": ["0+math.sin(q.anim_time*90*6+45)*4", 0, 0],
						"0.3333": ["-5+math.sin(q.anim_time*90*3+95)*4", 0, 0],
						"1.0": ["-5+math.sin(q.anim_time*90*3)*2", 0, 0],
						"1.5": [0, 0, 0],
						"1.75": [0, 0, 0]
					}
				},
				"mouth_closed": {
					"position": {
						"0.25": [0, 0, 0],
						"0.3333": [0, 0, 0.1],
						"1.1667": [0, 0, 0.1],
						"1.25": [0, 0, 0]
					}
				},
				"mouth_open": {
					"position": {
						"0.0": [0, 0, 0],
						"0.25": [0, 0, -0.1],
						"1.25": [0, 0, -0.1],
						"1.5": [0, 0, 0]
					}
				}
			}
		}
	}
}