{
	"format_version": "1.12.0",
	"minecraft:geometry": [
		{
			"description": {
				"identifier": "geometry.pidgeot",
				"texture_width": 128,
				"texture_height": 64,
				"visible_bounds_width": 6,
				"visible_bounds_height": 3.5,
				"visible_bounds_offset": [0, 1.25, 0]
			},
			"bones": [
				{
					"name": "pidgeot",
					"pivot": [0, 0, 0]
				},
				{
					"name": "body",
					"parent": "pidgeot",
					"pivot": [0, 7, -2]
				},
				{
					"name": "torso",
					"parent": "body",
					"pivot": [0, 7.5, -0.75],
					"rotation": [-15, 0, 0],
					"cubes": [
						{"origin": [-5, 5, -9], "size": [10, 10, 8], "uv": [0, 36]},
						{"origin": [-4, 5.5, -5], "size": [8, 8, 8], "uv": [36, 36]},
						{"origin": [-3, 6.5, 2], "size": [6, 6, 5], "uv": [103, 40]}
					]
				},
				{
					"name": "wing_left",
					"parent": "torso",
					"pivot": [5, 11, -7.25],
					"cubes": [
						{"origin": [5, 11, -11.75], "size": [9, 0, 12], "uv": [28, 12]}
					]
				},
				{
					"name": "wing_left2",
					"parent": "wing_left",
					"pivot": [14, 12, 0.25],
					"cubes": [
						{"origin": [14, 11, -11.75], "size": [9, 0, 12], "inflate": 0.01, "uv": [28, 0]}
					]
				},
				{
					"name": "wing_left3",
					"parent": "wing_left2",
					"pivot": [23, 12, -11.75],
					"cubes": [
						{"origin": [23, 11, -11.75], "size": [14, 0, 12], "uv": [0, 12]}
					]
				},
				{
					"name": "wing_right",
					"parent": "torso",
					"pivot": [-5, 11, -7.25],
					"cubes": [
						{"origin": [-14, 11, -11.75], "size": [9, 0, 12], "uv": [18, 24]}
					]
				},
				{
					"name": "wing_right2",
					"parent": "wing_right",
					"pivot": [-14, 12, 0.25],
					"cubes": [
						{"origin": [-23, 11, -11.75], "size": [9, 0, 12], "inflate": 0.01, "uv": [0, 24]}
					]
				},
				{
					"name": "wing_right3",
					"parent": "wing_right2",
					"pivot": [-23, 12, -11.75],
					"cubes": [
						{"origin": [-37, 11, -11.75], "size": [14, 0, 12], "uv": [0, 0]}
					]
				},
				{
					"name": "tail",
					"parent": "torso",
					"pivot": [0, 9.6, 6]
				},
				{
					"name": "tail_left",
					"parent": "tail",
					"pivot": [-0.75, 9.6, 6],
					"rotation": [0, 6.5, 0],
					"cubes": [
						{"origin": [-1, 9.6, 6], "size": [3, 0, 11], "inflate": 0.01, "uv": [111, 22]}
					]
				},
				{
					"name": "tail_right",
					"parent": "tail",
					"pivot": [0.75, 9.6, 6],
					"rotation": [0, -6.5, 0],
					"cubes": [
						{"origin": [-2, 9.6, 6], "size": [3, 0, 11], "uv": [49, 31]}
					]
				},
				{
					"name": "tail_left2",
					"parent": "tail",
					"pivot": [-0.25, 9.5, 6],
					"rotation": [0, 20.5, 0],
					"cubes": [
						{"origin": [-0.25, 9.5, 6], "size": [3, 0, 11], "uv": [105, 22]}
					]
				},
				{
					"name": "tail_right2",
					"parent": "tail",
					"pivot": [0.25, 9.5, 6],
					"rotation": [0, -20.5, 0],
					"cubes": [
						{"origin": [-2.75, 9.5, 6], "size": [3, 0, 11], "uv": [47, 0]}
					]
				},
				{
					"name": "neck",
					"parent": "torso",
					"pivot": [0, 8.75, -6.75],
					"rotation": [30, 0, 0],
					"cubes": [
						{"origin": [-3.5, 8.75, -8.5], "size": [7, 11, 7], "uv": [72, 38]}
					]
				},
				{
					"name": "head",
					"parent": "neck",
					"pivot": [0, 16.75, -6.25],
					"rotation": [-12.5, 0, 0],
					"cubes": [
						{"origin": [-3.5, 14.25, -9.25], "size": [7, 7, 7], "inflate": 0.01, "uv": [88, 22]}
					]
				},
				{
					"name": "beak",
					"parent": "head",
					"pivot": [0, 17.25, -9.25],
					"rotation": [5, 0, 0],
					"cubes": [
						{"origin": [-1.5, 16.25, -11.25], "size": [3, 2, 3], "inflate": 0.01, "uv": [0, 7]},
						{"origin": [-0.5, 15.75, -11.25], "size": [1, 1, 0], "uv": [0, 0]}
					]
				},
				{
					"name": "hair",
					"parent": "beak",
					"pivot": [-1.5, 17.5, -9.5],
					"rotation": [5, 0, 0],
					"cubes": [
						{"origin": [3.5, 19, -9.5], "size": [0, 2, 1], "pivot": [3.5, 20, -9.5], "rotation": [0, 15, 0], "uv": [0, 6]},
						{"origin": [-3.5, 17, -9.5], "size": [7, 4, 0], "uv": [109, 0]},
						{"origin": [-3.5, 19, -9.5], "size": [0, 2, 1], "pivot": [-3.5, 20, -9.5], "rotation": [0, -15, 0], "uv": [0, 0]}
					]
				},
				{
					"name": "hair2",
					"parent": "hair",
					"pivot": [-1.5, 21, -9.5],
					"rotation": [-82.5, 0, 0],
					"cubes": [
						{"origin": [-4, 21, -10.5], "size": [8, 6, 3], "inflate": 0.02, "uv": [87, 0]}
					]
				},
				{
					"name": "hair3",
					"parent": "hair2",
					"pivot": [-1.5, 27, -10.5],
					"rotation": [-47.5, 0, 0],
					"cubes": [
						{"origin": [-3.5, 27, -10.5], "size": [7, 7, 3], "inflate": 0.02, "uv": [87, 9]}
					]
				},
				{
					"name": "hair4",
					"parent": "hair3",
					"pivot": [-1.5, 34, -10],
					"rotation": [-22.5, 0, 0],
					"cubes": [
						{"origin": [-3.5, 34, -10], "size": [7, 6, 2], "uv": [62, 9]}
					]
				},
				{
					"name": "hair5",
					"parent": "hair4",
					"pivot": [-1.5, 40, -8.5],
					"rotation": [15, 0, 0],
					"cubes": [
						{"origin": [-3, 40, -9.5], "size": [6, 6, 1], "uv": [28, 36]}
					]
				},
				{
					"name": "hair6",
					"parent": "hair5",
					"pivot": [-1.5, 46, -9],
					"rotation": [20, 0, 0],
					"cubes": [
						{"origin": [-2.5, 46, -9], "size": [5, 6, 0], "uv": [0, 19]}
					]
				},
				{
					"name": "eye_left",
					"parent": "head",
					"pivot": [2.51167, 18.58333, -8.43],
					"cubes": [
						{"origin": [1.515, 18.75, -9.265], "size": [2, 1, 2], "inflate": 0.01, "uv": [64, 0]},
						{"origin": [2.01, 17.75, -9.265], "size": [1, 1, 1], "inflate": 0.01, "uv": [7, 29]},
						{"origin": [1.51, 17.25, -9.26], "size": [2, 2, 2], "inflate": 0.01, "uv": [107, 7]}
					]
				},
				{
					"name": "eyelid_left",
					"parent": "eye_left",
					"pivot": [2.41, 18.25, -8.16],
					"cubes": [
						{"origin": [1.41, 17.25, -9.16], "size": [2, 2, 2], "inflate": 0.02, "uv": [48, 31]}
					]
				},
				{
					"name": "eye_right",
					"parent": "head",
					"pivot": [-2.51167, 18.58333, -8.43],
					"cubes": [
						{"origin": [-3.515, 18.75, -9.265], "size": [2, 1, 2], "inflate": 0.01, "uv": [116, 33]},
						{"origin": [-3.01, 17.75, -9.265], "size": [1, 1, 1], "inflate": 0.01, "uv": [7, 25]},
						{"origin": [-3.51, 17.25, -9.26], "size": [2, 2, 2], "inflate": 0.01, "uv": [0, 40]}
					]
				},
				{
					"name": "eyelid_right",
					"parent": "eye_right",
					"pivot": [-2.41, 18.25, -8.16],
					"cubes": [
						{"origin": [-3.41, 17.25, -9.16], "size": [2, 2, 2], "inflate": 0.02, "uv": [0, 36]}
					]
				},
				{
					"name": "jaw",
					"parent": "head",
					"pivot": [0, 16, -9.25],
					"rotation": [-7.5, 0, 0],
					"cubes": [
						{"origin": [-1.5, 15.5, -10.75], "size": [3, 1, 2], "uv": [0, 33]}
					]
				},
				{
					"name": "leg_right",
					"parent": "body",
					"pivot": [-2.25, 5, -0.25],
					"rotation": [5, 0, 0],
					"cubes": [
						{"origin": [-3.25, 2.75, -1.75], "size": [2, 4, 3], "inflate": 0.01, "uv": [0, 12]}
					]
				},
				{
					"name": "leg_right2",
					"parent": "leg_right",
					"pivot": [-2.25, 2.75, 0.25],
					"rotation": [-15, 0, 0],
					"cubes": [
						{"origin": [-2.75, 0.75, -0.75], "size": [1, 2, 1], "uv": [7, 12]}
					]
				},
				{
					"name": "foot_right",
					"parent": "leg_right2",
					"pivot": [-2.25, 0.75, 0.25],
					"rotation": [10, 0, 0],
					"cubes": [
						{"origin": [-3.25, -0.07635, -1.98481], "size": [2, 1, 3], "uv": [0, 29]}
					]
				},
				{
					"name": "toe_back_right",
					"parent": "foot_right",
					"pivot": [-2.25, 0.92365, 1.01519],
					"cubes": [
						{"origin": [-2.75, -0.07635, 1.01519], "size": [1, 1, 2], "inflate": 0.01, "uv": [122, 34]}
					]
				},
				{
					"name": "claw_back_right",
					"parent": "toe_back_right",
					"pivot": [-2.25, 0.92365, 3.01519],
					"cubes": [
						{"origin": [-2.25, -0.07635, 3.01519], "size": [0, 1, 1], "uv": [10, 5]}
					]
				},
				{
					"name": "toe_inner_right",
					"parent": "foot_right",
					"pivot": [-2, 0.92365, -1.73481],
					"rotation": [0, -20, 0],
					"cubes": [
						{"origin": [-2, -0.07635, -3.73481], "size": [1, 1, 2], "inflate": 0.01, "uv": [64, 40]}
					]
				},
				{
					"name": "claw_inner_right",
					"parent": "toe_inner_right",
					"pivot": [-1.5, 0.92365, -3.73481],
					"cubes": [
						{"origin": [-1.5, -0.07635, -4.73481], "size": [0, 1, 1], "uv": [10, 4]}
					]
				},
				{
					"name": "toe_middle_right",
					"parent": "foot_right",
					"pivot": [-2.25, 0.92365, -1.73481],
					"cubes": [
						{"origin": [-2.75, -0.07635, -3.73481], "size": [1, 1, 2], "inflate": 0.01, "uv": [64, 3]}
					]
				},
				{
					"name": "claw_middle_right",
					"parent": "toe_middle_right",
					"pivot": [-2.25, 0.92365, -3.73481],
					"cubes": [
						{"origin": [-2.25, -0.07635, -4.73481], "size": [0, 1, 1], "uv": [10, 2]}
					]
				},
				{
					"name": "toe_outer_right",
					"parent": "foot_right",
					"pivot": [-2.5, 0.92365, -1.73481],
					"rotation": [0, 20, 0],
					"cubes": [
						{"origin": [-3.5, -0.07635, -3.73481], "size": [1, 1, 2], "inflate": 0.01, "uv": [64, 6]}
					]
				},
				{
					"name": "claw_outer_right",
					"parent": "toe_outer_right",
					"pivot": [-3, 0.92365, -3.73481],
					"cubes": [
						{"origin": [-3, -0.07635, -4.73481], "size": [0, 1, 1], "uv": [10, 3]}
					]
				},
				{
					"name": "leg_left",
					"parent": "body",
					"pivot": [2.25, 5, -0.25],
					"rotation": [5, 0, 0],
					"cubes": [
						{"origin": [1.25, 2.75, -1.75], "size": [2, 4, 3], "inflate": 0.01, "uv": [0, 0]}
					]
				},
				{
					"name": "leg_left2",
					"parent": "leg_left",
					"pivot": [2.25, 2.75, 0.25],
					"rotation": [-15, 0, 0],
					"cubes": [
						{"origin": [1.75, 0.75, -0.75], "size": [1, 2, 1], "uv": [7, 0]}
					]
				},
				{
					"name": "foot_left",
					"parent": "leg_left2",
					"pivot": [2.25, 0.75, 0.25],
					"rotation": [10, 0, 0],
					"cubes": [
						{"origin": [1.25, -0.07635, -1.98481], "size": [2, 1, 3], "uv": [0, 25]}
					]
				},
				{
					"name": "toe_back_left",
					"parent": "foot_left",
					"pivot": [2.25, 0.92365, 1.01519],
					"cubes": [
						{"origin": [1.75, -0.07635, 1.01519], "size": [1, 1, 2], "inflate": 0.01, "uv": [109, 4]}
					]
				},
				{
					"name": "claw_back_left",
					"parent": "toe_back_left",
					"pivot": [2.25, 0.92365, 3.01519],
					"cubes": [
						{"origin": [2.25, -0.07635, 3.01519], "size": [0, 1, 1], "uv": [9, 8]}
					]
				},
				{
					"name": "toe_inner_left",
					"parent": "foot_left",
					"pivot": [2, 0.92365, -1.73481],
					"rotation": [0, 20, 0],
					"cubes": [
						{"origin": [1, -0.07635, -3.73481], "size": [1, 1, 2], "inflate": 0.01, "uv": [109, 25]}
					]
				},
				{
					"name": "claw_inner_left",
					"parent": "toe_inner_left",
					"pivot": [1.5, 0.92365, -3.73481],
					"cubes": [
						{"origin": [1.5, -0.07635, -4.73481], "size": [0, 1, 1], "uv": [9, 7]}
					]
				},
				{
					"name": "toe_middle_left",
					"parent": "foot_left",
					"pivot": [2.25, 0.92365, -1.73481],
					"cubes": [
						{"origin": [1.75, -0.07635, -3.73481], "size": [1, 1, 2], "inflate": 0.01, "uv": [54, 33]}
					]
				},
				{
					"name": "claw_middle_left",
					"parent": "toe_middle_left",
					"pivot": [2.25, 0.92365, -3.73481],
					"cubes": [
						{"origin": [2.25, -0.07635, -4.73481], "size": [0, 1, 1], "uv": [9, 6]}
					]
				},
				{
					"name": "toe_outer_left",
					"parent": "foot_left",
					"pivot": [2.5, 0.92365, -1.73481],
					"rotation": [0, -20, 0],
					"cubes": [
						{"origin": [2.5, -0.07635, -3.73481], "size": [1, 1, 2], "inflate": 0.01, "uv": [109, 22]}
					]
				},
				{
					"name": "claw_outer_left",
					"parent": "toe_outer_left",
					"pivot": [3, 0.92365, -3.73481],
					"cubes": [
						{"origin": [3, -0.07635, -4.73481], "size": [0, 1, 1], "uv": [0, 8]}
					]
				}
			]
		}
	]
}